{
  "name": "LML Course",
  "description": "This course provides information about LML and is also written in LML",
  "folderName": "",
  "chapterName": "CHAPTER_",
  "lessonName": "LESSON_",
  "autoStart": false,
  "showLog": true,
  "chapter": [{
    "name": "An introduction to LML",
    "description": "Basic information",
    "lesson": [{
      "name": "lesson",
      "description": "first lesson"
    }, {
      "name": "lesson 2",
      "description": "second lesson"
    }]
  }, {
    "name": "Working with LML",
    "description": "not available yet...",
    "lesson": [{
      "name": "lesson",
      "description": "first lesson"
    }, {
      "name": "lesson 2",
      "description": "second lesson"
    }]
  }],
  "meta": {
    "language": "en",
    "word": {
      "back": "go back",
      "submit": "submit",
      "continue": "continue",
      "skip": "skip",
      "skipLesson": "skip lesson",
      "again": "try again"
    }
  }
}
